<?xml version="1.0" encoding="utf-8"  standalone="no"?>
<svg 
 width="600" height="480"
 viewBox="0 0 600 480"
 xmlns="http://www.w3.org/2000/svg"
 xmlns:xlink="http://www.w3.org/1999/xlink"
>

<title>Gnuplot</title>
<desc>Produced by GNUPLOT 5.4 patchlevel 1 </desc>

<g id="gnuplot_canvas">

<rect x="0" y="0" width="600" height="480" fill="none"/>
<defs>

	<circle id='gpDot' r='0.5' stroke-width='0.5' stroke='currentColor'/>
	<path id='gpPt0' stroke-width='0.222' stroke='currentColor' d='M-1,0 h2 M0,-1 v2'/>
	<path id='gpPt1' stroke-width='0.222' stroke='currentColor' d='M-1,-1 L1,1 M1,-1 L-1,1'/>
	<path id='gpPt2' stroke-width='0.222' stroke='currentColor' d='M-1,0 L1,0 M0,-1 L0,1 M-1,-1 L1,1 M-1,1 L1,-1'/>
	<rect id='gpPt3' stroke-width='0.222' stroke='currentColor' x='-1' y='-1' width='2' height='2'/>
	<rect id='gpPt4' stroke-width='0.222' stroke='currentColor' fill='currentColor' x='-1' y='-1' width='2' height='2'/>
	<circle id='gpPt5' stroke-width='0.222' stroke='currentColor' cx='0' cy='0' r='1'/>
	<use xlink:href='#gpPt5' id='gpPt6' fill='currentColor' stroke='none'/>
	<path id='gpPt7' stroke-width='0.222' stroke='currentColor' d='M0,-1.33 L-1.33,0.67 L1.33,0.67 z'/>
	<use xlink:href='#gpPt7' id='gpPt8' fill='currentColor' stroke='none'/>
	<use xlink:href='#gpPt7' id='gpPt9' stroke='currentColor' transform='rotate(180)'/>
	<use xlink:href='#gpPt9' id='gpPt10' fill='currentColor' stroke='none'/>
	<use xlink:href='#gpPt3' id='gpPt11' stroke='currentColor' transform='rotate(45)'/>
	<use xlink:href='#gpPt11' id='gpPt12' fill='currentColor' stroke='none'/>
	<path id='gpPt13' stroke-width='0.222' stroke='currentColor' d='M0,1.330 L1.265,0.411 L0.782,-1.067 L-0.782,-1.076 L-1.265,0.411 z'/>
	<use xlink:href='#gpPt13' id='gpPt14' fill='currentColor' stroke='none'/>
	<filter id='textbox' filterUnits='objectBoundingBox' x='0' y='0' height='1' width='1'>
	  <feFlood flood-color='white' flood-opacity='1' result='bgnd'/>
	  <feComposite in='SourceGraphic' in2='bgnd' operator='atop'/>
	</filter>
	<filter id='greybox' filterUnits='objectBoundingBox' x='0' y='0' height='1' width='1'>
	  <feFlood flood-color='lightgrey' flood-opacity='1' result='grey'/>
	  <feComposite in='SourceGraphic' in2='grey' operator='atop'/>
	</filter>
</defs>
<g fill="none" color="white" stroke="currentColor" stroke-width="1.00" stroke-linecap="butt" stroke-linejoin="miter">
</g>
<g fill="none" color="black" stroke="currentColor" stroke-width="1.00" stroke-linecap="butt" stroke-linejoin="miter">
	<path stroke='black'  d='M242.51,444.00 L242.51,435.00  '/>	<g transform="translate(242.51,465.90)" stroke="none" fill="black" font-family="Arial" font-size="12.00"  text-anchor="middle">
		<text><tspan font-family="Arial" >Us</tspan></text>
	</g>
</g>
<g fill="none" color="black" stroke="currentColor" stroke-width="1.00" stroke-linecap="butt" stroke-linejoin="miter">
</g>
<g fill="none" color="black" stroke="currentColor" stroke-width="1.00" stroke-linecap="butt" stroke-linejoin="miter">
</g>
	<g id="gnuplot_plot_1" ><title>DATA using 2:3:4:5:xtic(1)</title>
<g fill="none" color="black" stroke="currentColor" stroke-width="1.00" stroke-linecap="butt" stroke-linejoin="miter">
	<g stroke='none' shape-rendering='crispEdges'>
		<polygon fill = 'rgb(  0, 204, 128)' points = '408.66,249.00 408.03,236.26 406.14,223.61 403.00,211.15 398.64,198.99 393.09,187.20 386.40,175.88 378.61,165.12 369.79,155.00 359.99,145.59 349.31,136.97 337.81,129.21 325.58,122.35 312.73,116.46 299.33,111.58 285.51,107.74
271.36,104.98 256.99,103.32 242.51,102.76 228.02,103.32 213.65,104.98 199.50,107.74 185.68,111.58 172.28,116.46 159.43,122.35 147.20,129.21 135.70,136.97 125.02,145.59 115.22,155.00 106.40,165.12 98.61,175.88 91.92,187.20
86.37,198.99 82.01,211.15 78.87,223.61 76.98,236.26 76.35,249.00 76.98,261.75 78.87,274.40 82.01,286.86 86.37,299.02 91.92,310.81 98.61,322.13 106.40,332.89 115.22,343.01 125.02,352.42 135.70,361.04 147.20,368.80
159.43,375.66 172.28,381.55 185.68,386.43 199.50,390.27 213.65,393.03 228.02,394.69 242.50,395.25 256.99,394.69 271.36,393.03 285.51,390.27 299.33,386.43 312.73,381.55 325.58,375.66 337.81,368.80 349.31,361.04 359.99,352.42
369.79,343.01 378.61,332.89 386.40,322.13 393.09,310.81 398.64,299.02 403.00,286.86 406.14,274.40 408.03,261.75 '/>
	</g>
	<path stroke='rgb(  0, 204, 128)'  d='M408.66,249.00 L408.03,236.26 L406.14,223.61 L403.00,211.15 L398.64,198.99 L393.09,187.20 L386.40,175.88 L378.61,165.12
		L369.79,155.00 L359.99,145.59 L349.31,136.97 L337.81,129.21 L325.58,122.35 L312.73,116.46 L299.33,111.58 L285.51,107.74
		L271.36,104.98 L256.99,103.32 L242.51,102.76 L228.02,103.32 L213.65,104.98 L199.50,107.74 L185.68,111.58 L172.28,116.46
		L159.43,122.35 L147.20,129.21 L135.70,136.97 L125.02,145.59 L115.22,155.00 L106.40,165.12 L98.61,175.88 L91.92,187.20
		L86.37,198.99 L82.01,211.15 L78.87,223.61 L76.98,236.26 L76.35,249.00 L76.98,261.75 L78.87,274.40 L82.01,286.86
		L86.37,299.02 L91.92,310.81 L98.61,322.13 L106.40,332.89 L115.22,343.01 L125.02,352.42 L135.70,361.04 L147.20,368.80
		L159.43,375.66 L172.28,381.55 L185.68,386.43 L199.50,390.27 L213.65,393.03 L228.02,394.69 L242.50,395.25 L256.99,394.69
		L271.36,393.03 L285.51,390.27 L299.33,386.43 L312.73,381.55 L325.58,375.66 L337.81,368.80 L349.31,361.04 L359.99,352.42
		L369.79,343.01 L378.61,332.89 L386.40,322.13 L393.09,310.81 L398.64,299.02 L403.00,286.86 L406.14,274.40 L408.03,261.75
		L408.66,249.01  '/>	<g stroke='none' shape-rendering='crispEdges'>
		<polygon fill = 'rgb(  0, 204, 204)' points = '353.28,249.00 352.85,240.51 351.59,232.07 349.50,223.77 346.59,215.66 342.90,207.80 338.43,200.26 333.24,193.08 327.36,186.33 320.83,180.06 313.71,174.32 306.04,169.14 297.89,164.57 289.32,160.64 280.39,157.39 271.17,154.83
261.74,152.99 252.16,151.88 242.51,151.51 232.85,151.88 223.27,152.99 213.84,154.83 204.62,157.39 195.69,160.64 187.12,164.57 178.97,169.14 171.30,174.32 164.18,180.06 157.65,186.33 151.77,193.08 146.58,200.26 142.11,207.80
138.42,215.66 135.51,223.77 133.42,232.07 132.16,240.51 131.74,249.00 132.16,257.50 133.42,265.94 135.51,274.24 138.42,282.35 142.11,290.21 146.58,297.75 151.77,304.93 157.65,311.68 164.18,317.95 171.30,323.69 178.97,328.87
187.12,333.44 195.69,337.37 204.62,340.62 213.84,343.18 223.27,345.02 232.85,346.13 242.50,346.50 252.16,346.13 261.74,345.02 271.17,343.18 280.39,340.62 289.32,337.37 297.89,333.44 306.04,328.87 313.71,323.69 320.83,317.95
327.36,311.68 333.24,304.93 338.43,297.75 342.90,290.21 346.59,282.35 349.50,274.24 351.59,265.94 352.85,257.50 '/>
	</g>
	<path stroke='rgb(  0, 204, 204)'  d='M353.28,249.00 L352.85,240.51 L351.59,232.07 L349.50,223.77 L346.59,215.66 L342.90,207.80 L338.43,200.26 L333.24,193.08
		L327.36,186.33 L320.83,180.06 L313.71,174.32 L306.04,169.14 L297.89,164.57 L289.32,160.64 L280.39,157.39 L271.17,154.83
		L261.74,152.99 L252.16,151.88 L242.51,151.51 L232.85,151.88 L223.27,152.99 L213.84,154.83 L204.62,157.39 L195.69,160.64
		L187.12,164.57 L178.97,169.14 L171.30,174.32 L164.18,180.06 L157.65,186.33 L151.77,193.08 L146.58,200.26 L142.11,207.80
		L138.42,215.66 L135.51,223.77 L133.42,232.07 L132.16,240.51 L131.74,249.00 L132.16,257.50 L133.42,265.94 L135.51,274.24
		L138.42,282.35 L142.11,290.21 L146.58,297.75 L151.77,304.93 L157.65,311.68 L164.18,317.95 L171.30,323.69 L178.97,328.87
		L187.12,333.44 L195.69,337.37 L204.62,340.62 L213.84,343.18 L223.27,345.02 L232.85,346.13 L242.50,346.50 L252.16,346.13
		L261.74,345.02 L271.17,343.18 L280.39,340.62 L289.32,337.37 L297.89,333.44 L306.04,328.87 L313.71,323.69 L320.83,317.95
		L327.36,311.68 L333.24,304.93 L338.43,297.75 L342.90,290.21 L346.59,282.35 L349.50,274.24 L351.59,265.94 L352.85,257.50
		L353.28,249.01  '/></g>
	</g>
<g fill="none" color="white" stroke="rgb(  0, 204, 204)" stroke-width="2.00" stroke-linecap="butt" stroke-linejoin="miter">
</g>
<g fill="none" color="black" stroke="currentColor" stroke-width="2.00" stroke-linecap="butt" stroke-linejoin="miter">
</g>
<g fill="none" color="black" stroke="black" stroke-width="1.00" stroke-linecap="butt" stroke-linejoin="miter">
</g>
<g fill="none" color="black" stroke="currentColor" stroke-width="1.00" stroke-linecap="butt" stroke-linejoin="miter">
	<g transform="translate(297.89,30.91)" stroke="none" fill="black" font-family="Arial" font-size="12.00"  text-anchor="middle">
		<text><tspan font-family="Arial" >Two Circles; We are family</tspan></text>
	</g>
</g>
<g fill="none" color="black" stroke="currentColor" stroke-width="1.00" stroke-linecap="butt" stroke-linejoin="miter">
</g>
</g>
</svg>

